20

197 29
12
t 82 22 n
r 123 0 n
r 148 21 e
h 42 25 s
f 187 17 s
r 76 24 n
f 37 13 e
h 162 3 w
f 128 20 e
f 22 22 n
f 78 20 w
r 6 20 w
38 126

13 191
2
h 3 108 w
f 10 120 w
6 22

84 131
6
f 51 115 w
h 70 113 s
h 58 63 n
t 67 15 e
r 37 105 n
t 62 111 n
35 44

2 122
1
f 1 83 n
2 36

121 59
20
h 37 57 n
h 57 41 s
h 99 8 s
f 2 25 s
h 48 40 n
t 5 33 s
f 3 22 n
t 35 57 w
t 97 19 e
r 48 29 w
r 100 19 s
t 47 56 w
t 108 11 e
t 63 8 w
t 37 42 n
h 30 47 w
t 31 31 n
h 56 5 n
h 30 38 s
r 82 17 n
29 73

39 47
14
t 13 7 n
r 2 37 w
h 11 29 n
t 9 10 n
r 31 20 s
t 21 44 n
r 25 3 w
t 21 37 n
r 24 7 n
h 35 18 w
t 7 6 s
r 29 21 n
r 0 13 w
r 24 25 s
48 183

133 84
7
r 89 17 w
r 26 23 n
f 65 78 n
r 68 82 e
r 86 4 e
t 31 81 n
t 22 81 w
1 180

95 82
20
r 49 54 e
h 6 51 e
h 0 63 n
r 48 9 s
r 50 69 e
h 73 63 n
f 38 30 w
r 74 25 s
t 0 28 w
t 43 6 w
r 23 44 s
r 72 4 n
r 26 59 n
h 69 32 n
f 3 27 e
t 83 14 e
f 5 10 s
f 4 46 n
h 71 58 s
f 15 67 s
16 135

141 16
11
f 40 1 n
t 101 12 s
r 33 15 n
h 114 9 s
h 84 7 w
r 31 2 s
t 89 13 s
r 14 14 s
t 17 15 s
f 104 0 w
f 123 2 e
12 57

1 6
8
r 0 2 e
t 0 1 e
t 0 0 n
r 0 4 s
r 0 4 s
t 0 5 n
r 0 1 s
h 0 4 e
20 133

134 133
18
t 61 103 e
h 74 73 w
t 4 3 s
t 132 58 n
t 43 96 s
f 114 101 e
f 43 15 n
f 33 44 n
f 90 113 e
f 5 126 s
h 126 42 e
h 2 12 n
h 32 51 s
t 26 96 s
t 0 75 n
h 46 89 e
r 1 10 s
r 104 71 n
7 6

117 39
5
r 26 38 n
r 53 5 w
f 77 27 e
f 39 10 e
t 3 31 s
6 158

133 14
4
t 114 6 w
h 34 5 n
h 90 0 w
h 36 5 w
5 117

145 134
16
f 17 101 w
f 79 128 e
h 135 129 e
t 48 61 e
r 114 57 e
h 43 92 n
f 39 81 e
f 68 131 n
f 98 5 w
r 19 54 n
t 86 96 w
t 88 21 n
f 34 53 e
r 12 108 w
f 87 35 w
t 72 30 w
20 82

162 105
4
h 36 4 n
t 41 84 n
h 103 77 e
r 105 101 n
30 41

4 153
8
r 0 135 n
t 3 23 w
t 1 22 s
f 1 107 e
h 3 139 n
h 0 65 w
f 1 139 w
h 0 78 w
17 31

27 169
18
h 11 79 s
h 6 12 w
r 7 133 e
f 7 66 w
f 3 160 w
h 10 50 n
r 3 4 s
h 12 143 e
f 0 31 w
h 21 89 w
t 17 66 w
h 12 111 e
t 2 1 e
t 0 135 e
f 24 14 e
f 13 89 e
h 18 16 e
h 16 5 s
11 3

18 36
9
h 16 16 n
t 5 16 s
f 10 30 e
t 17 31 e
r 6 30 s
h 5 15 n
f 0 20 e
t 15 2 e
r 9 8 n
23 154

167 50
1
f 42 10 w
11 23

102 146
18
t 27 93 w
r 73 122 w
t 18 97 s
h 4 64 s
t 34 32 n
t 82 26 w
f 100 89 w
f 52 69 s
r 37 55 s
t 56 50 e
h 47 31 e
h 69 38 n
r 66 145 w
h 18 61 s
h 87 3 s
f 60 109 n
t 6 61 s
f 69 91 n
34 109
