20

13 12
17
t 8 10 e
r 2 1 s
f 10 5 n
r 7 5 n
r 4 0 n
h 6 9 e
r 12 9 e
r 5 4 n
f 0 8 w
t 10 2 e
t 7 4 s
t 6 10 s
t 10 2 s
r 2 1 s
h 5 4 w
t 11 6 n
r 0 10 s
60 19

23 21
12
r 22 20 w
f 4 5 e
t 8 13 w
h 0 1 e
t 22 15 n
t 7 0 n
t 20 14 e
h 22 11 e
h 12 3 s
t 3 18 w
r 9 15 n
r 14 10 n
112 16

22 13
9
r 10 6 s
h 7 0 w
h 9 0 n
h 20 9 e
h 10 3 w
f 21 0 w
r 15 11 n
r 11 9 w
f 11 0 n
138 19

26 12
3
t 25 9 n
r 4 5 n
f 24 5 e
60 2

22 22
15
h 1 10 w
r 9 6 s
t 4 21 w
t 12 5 w
r 6 13 n
f 10 5 s
f 20 1 e
h 13 18 s
f 6 14 s
r 0 11 w
h 16 9 s
h 14 16 s
t 16 0 e
h 20 2 n
f 5 6 s
28 1

18 9
5
t 8 1 n
t 2 6 w
f 5 4 s
h 6 4 s
h 5 7 e
83 19

28 27
4
h 6 7 w
t 7 22 e
h 15 1 w
r 10 12 w
16 11

17 5
1
t 7 2 n
87 2

19 28
20
r 17 14 e
f 13 14 s
h 7 22 w
f 15 1 e
h 17 26 e
h 14 15 s
r 5 18 e
h 17 20 n
f 12 26 e
r 12 19 e
r 8 23 s
r 3 21 s
f 2 9 s
h 2 11 w
h 13 17 s
r 3 16 n
f 9 16 s
r 10 12 s
f 4 12 e
f 8 2 e
53 3

15 23
17
f 3 0 s
r 13 4 e
t 10 17 e
t 9 2 w
t 4 16 w
t 8 4 s
t 13 8 s
h 3 13 n
h 8 17 s
f 14 2 n
h 1 19 w
f 10 21 s
f 12 18 e
r 1 20 w
r 13 0 n
r 10 4 n
f 4 8 n
66 15

27 10
8
h 6 0 e
t 7 6 s
t 19 7 s
h 5 6 s
r 20 1 s
f 2 7 n
h 11 3 w
t 11 1 e
40 10

23 13
3
f 19 5 n
h 7 3 s
t 21 12 w
194 5

3 10
5
f 0 0 s
r 1 1 n
t 1 1 n
f 1 9 w
r 0 1 s
158 2

4 28
3
r 3 3 e
f 1 20 s
f 0 8 e
45 6

25 25
18
t 21 4 e
f 19 12 w
h 17 22 s
r 3 1 w
h 6 2 w
f 3 4 e
r 3 9 n
r 16 19 w
f 3 7 e
r 4 1 n
h 3 19 s
f 17 1 e
h 13 5 w
h 8 7 s
f 16 6 s
t 18 3 s
f 14 7 e
t 13 21 w
88 7

22 27
5
h 19 12 e
t 14 0 w
f 18 12 s
r 12 0 e
r 19 10 e
34 10

21 13
11
r 13 2 w
t 15 10 w
f 9 4 n
t 19 3 n
f 6 5 s
h 9 12 w
f 8 9 s
f 11 4 w
r 14 6 s
f 19 5 e
r 17 1 e
60 2

21 11
11
h 5 5 n
f 14 8 s
f 19 3 s
r 15 7 s
h 6 0 e
h 2 2 n
h 13 0 s
r 5 5 s
h 10 7 n
f 11 2 n
r 12 3 n
75 12

7 2
6
t 2 1 w
t 5 1 n
r 2 0 s
f 4 1 n
r 6 1 w
h 5 0 e
195 2

6 12
8
h 5 6 e
f 2 3 w
t 0 9 s
r 4 4 s
t 2 6 s
f 3 5 w
f 3 8 w
r 3 11 n
172 1
